Lesson 7: Explore Many Variables
…
#Q1

library(dplyr)

age_gender_group <- group_by(pf, age, gender)
age_gender_group <- filter(age_gender_group, !is.na(gender))
pf.fc_by_age_gender <- summarise(age_gender_group,
                                 mean_friend_count = mean(friend_count),
                                 median_friend_count = median(friend_count),
                                 n = n())
arrange(pf.fc_by_age_gender, age)

## # A tibble: 202 x 5
## # Groups:   age [101]
##      age gender mean_friend_count median_friend_count     n
##    <int> <fct>              <dbl>               <dbl> <int>
##  1    13 female               259               148     193
##  2    13 male                 102                55.0   291
##  3    14 female               362               224     847
##  4    14 male                 164                92.5  1078
##  5    15 female               539               276    1139
##  6    15 male                 201               106    1478
##  7    16 female               520               258    1238
##  8    16 male                 240               136    1848
##  9    17 female               539               246    1236
## 10    17 male                 236               125    2045
## # ... with 192 more rows
…
